%YAML 1.1
%TAG !u! tag:unity3d.com,2011:
--- !u!114 &11400000
MonoBehaviour:
  m_ObjectHideFlags: 0
  m_CorrespondingSourceObject: {fileID: 0}
  m_PrefabInstance: {fileID: 0}
  m_PrefabAsset: {fileID: 0}
  m_GameObject: {fileID: 0}
  m_Enabled: 1
  m_EditorHideFlags: 0
  m_Script: {fileID: 11500000, guid: 590089329d9347b8b792258d048e2b29, type: 3}
  m_Name: Dirt
  m_EditorClassIdentifier: 
  Acceleration: 3
  MaxSpeed: 15
  BreakTargetSpeed: 15
  BoostDeltaSpeed: 30
  Steering: 33
  Gravity: 1
  Drift: 1
  StopSlopeSlide: 1
